{
   "abstract" : "Localization support for DateTime.pm",
   "author" : [
      "Richard Evans",
      "Dave Rolsky <autarch@urth.org>"
   ],
   "dynamic_config" : 0,
   "generated_by" : "Dist::Zilla version 5.036, CPAN::Meta::Converter version 2.150001",
   "license" : [
      "perl_5"
   ],
   "meta-spec" : {
      "url" : "http://search.cpan.org/perldoc?CPAN::Meta::Spec",
      "version" : "2"
   },
   "name" : "DateTime-Locale",
   "prereqs" : {
      "build" : {
         "requires" : {
            "ExtUtils::MakeMaker" : "0"
         }
      },
      "configure" : {
         "requires" : {
            "Dist::CheckConflicts" : "0.02",
            "ExtUtils::MakeMaker" : "0"
         }
      },
      "develop" : {
         "requires" : {
            "File::Spec" : "0",
            "IO::Handle" : "0",
            "IPC::Open3" : "0",
            "Perl::Critic" : "1.123",
            "Perl::Tidy" : "20140711",
            "Test::CPAN::Changes" : "0.19",
            "Test::EOL" : "0",
            "Test::More" : "0.88",
            "Test::NoTabs" : "0",
            "Test::Pod" : "1.41",
            "Test::Spelling" : "0.12"
         }
      },
      "runtime" : {
         "requires" : {
            "Carp" : "0",
            "Dist::CheckConflicts" : "0.02",
            "List::MoreUtils" : "0",
            "Params::Validate" : "0",
            "base" : "0",
            "perl" : "5.006",
            "strict" : "0",
            "utf8" : "0",
            "warnings" : "0"
         }
      },
      "test" : {
         "recommends" : {
            "CPAN::Meta" : "2.120900"
         },
         "requires" : {
            "ExtUtils::MakeMaker" : "0",
            "File::Spec" : "0",
            "Storable" : "0",
            "Test::More" : "0.96"
         }
      }
   },
   "provides" : {
      "DateTime::Locale" : {
         "file" : "lib/DateTime/Locale.pm",
         "version" : "0.46"
      },
      "DateTime::Locale::Base" : {
         "file" : "lib/DateTime/Locale/Base.pm",
         "version" : "0.46"
      },
      "DateTime::Locale::Catalog" : {
         "file" : "lib/DateTime/Locale/Catalog.pm",
         "version" : "0.46"
      },
      "DateTime::Locale::aa" : {
         "file" : "lib/DateTime/Locale/aa.pm",
         "version" : "0.46"
      },
      "DateTime::Locale::aa_DJ" : {
         "file" : "lib/DateTime/Locale/aa_DJ.pm",
         "version" : "0.46"
      },
      "DateTime::Locale::aa_ER" : {
         "file" : "lib/DateTime/Locale/aa_ER.pm",
         "version" : "0.46"
      },
      "DateTime::Locale::aa_ER_SAAHO" : {
         "file" : "lib/DateTime/Locale/aa_ER_SAAHO.pm",
         "version" : "0.46"
      },
      "DateTime::Locale::aa_ET" : {
         "file" : "lib/DateTime/Locale/aa_ET.pm",
         "version" : "0.46"
      },
      "DateTime::Locale::af" : {
         "file" : "lib/DateTime/Locale/af.pm",
         "version" : "0.46"
      },
      "DateTime::Locale::af_NA" : {
         "file" : "lib/DateTime/Locale/af_NA.pm",
         "version" : "0.46"
      },
      "DateTime::Locale::af_ZA" : {
         "file" : "lib/DateTime/Locale/af_ZA.pm",
         "version" : "0.46"
      },
      "DateTime::Locale::ak" : {
         "file" : "lib/DateTime/Locale/ak.pm",
         "version" : "0.46"
      },
      "DateTime::Locale::ak_GH" : {
         "file" : "lib/DateTime/Locale/ak_GH.pm",
         "version" : "0.46"
      },
      "DateTime::Locale::am" : {
         "file" : "lib/DateTime/Locale/am.pm",
         "version" : "0.46"
      },
      "DateTime::Locale::am_ET" : {
         "file" : "lib/DateTime/Locale/am_ET.pm",
         "version" : "0.46"
      },
      "DateTime::Locale::ar" : {
         "file" : "lib/DateTime/Locale/ar.pm",
         "version" : "0.46"
      },
      "DateTime::Locale::ar_AE" : {
         "file" : "lib/DateTime/Locale/ar_AE.pm",
         "version" : "0.46"
      },
      "DateTime::Locale::ar_BH" : {
         "file" : "lib/DateTime/Locale/ar_BH.pm",
         "version" : "0.46"
      },
      "DateTime::Locale::ar_DZ" : {
         "file" : "lib/DateTime/Locale/ar_DZ.pm",
         "version" : "0.46"
      },
      "DateTime::Locale::ar_EG" : {
         "file" : "lib/DateTime/Locale/ar_EG.pm",
         "version" : "0.46"
      },
      "DateTime::Locale::ar_IQ" : {
         "file" : "lib/DateTime/Locale/ar_IQ.pm",
         "version" : "0.46"
      },
      "DateTime::Locale::ar_JO" : {
         "file" : "lib/DateTime/Locale/ar_JO.pm",
         "version" : "0.46"
      },
      "DateTime::Locale::ar_KW" : {
         "file" : "lib/DateTime/Locale/ar_KW.pm",
         "version" : "0.46"
      },
      "DateTime::Locale::ar_LB" : {
         "file" : "lib/DateTime/Locale/ar_LB.pm",
         "version" : "0.46"
      },
      "DateTime::Locale::ar_LY" : {
         "file" : "lib/DateTime/Locale/ar_LY.pm",
         "version" : "0.46"
      },
      "DateTime::Locale::ar_MA" : {
         "file" : "lib/DateTime/Locale/ar_MA.pm",
         "version" : "0.46"
      },
      "DateTime::Locale::ar_OM" : {
         "file" : "lib/DateTime/Locale/ar_OM.pm",
         "version" : "0.46"
      },
      "DateTime::Locale::ar_QA" : {
         "file" : "lib/DateTime/Locale/ar_QA.pm",
         "version" : "0.46"
      },
      "DateTime::Locale::ar_SA" : {
         "file" : "lib/DateTime/Locale/ar_SA.pm",
         "version" : "0.46"
      },
      "DateTime::Locale::ar_SD" : {
         "file" : "lib/DateTime/Locale/ar_SD.pm",
         "version" : "0.46"
      },
      "DateTime::Locale::ar_SY" : {
         "file" : "lib/DateTime/Locale/ar_SY.pm",
         "version" : "0.46"
      },
      "DateTime::Locale::ar_TN" : {
         "file" : "lib/DateTime/Locale/ar_TN.pm",
         "version" : "0.46"
      },
      "DateTime::Locale::ar_YE" : {
         "file" : "lib/DateTime/Locale/ar_YE.pm",
         "version" : "0.46"
      },
      "DateTime::Locale::as" : {
         "file" : "lib/DateTime/Locale/as.pm",
         "version" : "0.46"
      },
      "DateTime::Locale::as_IN" : {
         "file" : "lib/DateTime/Locale/as_IN.pm",
         "version" : "0.46"
      },
      "DateTime::Locale::az" : {
         "file" : "lib/DateTime/Locale/az.pm",
         "version" : "0.46"
      },
      "DateTime::Locale::az_AZ" : {
         "file" : "lib/DateTime/Locale/az_AZ.pm",
         "version" : "0.46"
      },
      "DateTime::Locale::az_Cyrl" : {
         "file" : "lib/DateTime/Locale/az_Cyrl.pm",
         "version" : "0.46"
      },
      "DateTime::Locale::az_Cyrl_AZ" : {
         "file" : "lib/DateTime/Locale/az_Cyrl_AZ.pm",
         "version" : "0.46"
      },
      "DateTime::Locale::az_Latn" : {
         "file" : "lib/DateTime/Locale/az_Latn.pm",
         "version" : "0.46"
      },
      "DateTime::Locale::az_Latn_AZ" : {
         "file" : "lib/DateTime/Locale/az_Latn_AZ.pm",
         "version" : "0.46"
      },
      "DateTime::Locale::be" : {
         "file" : "lib/DateTime/Locale/be.pm",
         "version" : "0.46"
      },
      "DateTime::Locale::be_BY" : {
         "file" : "lib/DateTime/Locale/be_BY.pm",
         "version" : "0.46"
      },
      "DateTime::Locale::bg" : {
         "file" : "lib/DateTime/Locale/bg.pm",
         "version" : "0.46"
      },
      "DateTime::Locale::bg_BG" : {
         "file" : "lib/DateTime/Locale/bg_BG.pm",
         "version" : "0.46"
      },
      "DateTime::Locale::bn" : {
         "file" : "lib/DateTime/Locale/bn.pm",
         "version" : "0.46"
      },
      "DateTime::Locale::bn_BD" : {
         "file" : "lib/DateTime/Locale/bn_BD.pm",
         "version" : "0.46"
      },
      "DateTime::Locale::bn_IN" : {
         "file" : "lib/DateTime/Locale/bn_IN.pm",
         "version" : "0.46"
      },
      "DateTime::Locale::bo" : {
         "file" : "lib/DateTime/Locale/bo.pm",
         "version" : "0.46"
      },
      "DateTime::Locale::bo_CN" : {
         "file" : "lib/DateTime/Locale/bo_CN.pm",
         "version" : "0.46"
      },
      "DateTime::Locale::bo_IN" : {
         "file" : "lib/DateTime/Locale/bo_IN.pm",
         "version" : "0.46"
      },
      "DateTime::Locale::bs" : {
         "file" : "lib/DateTime/Locale/bs.pm",
         "version" : "0.46"
      },
      "DateTime::Locale::bs_BA" : {
         "file" : "lib/DateTime/Locale/bs_BA.pm",
         "version" : "0.46"
      },
      "DateTime::Locale::byn" : {
         "file" : "lib/DateTime/Locale/byn.pm",
         "version" : "0.46"
      },
      "DateTime::Locale::byn_ER" : {
         "file" : "lib/DateTime/Locale/byn_ER.pm",
         "version" : "0.46"
      },
      "DateTime::Locale::ca" : {
         "file" : "lib/DateTime/Locale/ca.pm",
         "version" : "0.46"
      },
      "DateTime::Locale::ca_ES" : {
         "file" : "lib/DateTime/Locale/ca_ES.pm",
         "version" : "0.46"
      },
      "DateTime::Locale::cch" : {
         "file" : "lib/DateTime/Locale/cch.pm",
         "version" : "0.46"
      },
      "DateTime::Locale::cch_NG" : {
         "file" : "lib/DateTime/Locale/cch_NG.pm",
         "version" : "0.46"
      },
      "DateTime::Locale::cop" : {
         "file" : "lib/DateTime/Locale/cop.pm",
         "version" : "0.46"
      },
      "DateTime::Locale::cs" : {
         "file" : "lib/DateTime/Locale/cs.pm",
         "version" : "0.46"
      },
      "DateTime::Locale::cs_CZ" : {
         "file" : "lib/DateTime/Locale/cs_CZ.pm",
         "version" : "0.46"
      },
      "DateTime::Locale::cy" : {
         "file" : "lib/DateTime/Locale/cy.pm",
         "version" : "0.46"
      },
      "DateTime::Locale::cy_GB" : {
         "file" : "lib/DateTime/Locale/cy_GB.pm",
         "version" : "0.46"
      },
      "DateTime::Locale::da" : {
         "file" : "lib/DateTime/Locale/da.pm",
         "version" : "0.46"
      },
      "DateTime::Locale::da_DK" : {
         "file" : "lib/DateTime/Locale/da_DK.pm",
         "version" : "0.46"
      },
      "DateTime::Locale::de" : {
         "file" : "lib/DateTime/Locale/de.pm",
         "version" : "0.46"
      },
      "DateTime::Locale::de_AT" : {
         "file" : "lib/DateTime/Locale/de_AT.pm",
         "version" : "0.46"
      },
      "DateTime::Locale::de_BE" : {
         "file" : "lib/DateTime/Locale/de_BE.pm",
         "version" : "0.46"
      },
      "DateTime::Locale::de_CH" : {
         "file" : "lib/DateTime/Locale/de_CH.pm",
         "version" : "0.46"
      },
      "DateTime::Locale::de_DE" : {
         "file" : "lib/DateTime/Locale/de_DE.pm",
         "version" : "0.46"
      },
      "DateTime::Locale::de_LI" : {
         "file" : "lib/DateTime/Locale/de_LI.pm",
         "version" : "0.46"
      },
      "DateTime::Locale::de_LU" : {
         "file" : "lib/DateTime/Locale/de_LU.pm",
         "version" : "0.46"
      },
      "DateTime::Locale::dv" : {
         "file" : "lib/DateTime/Locale/dv.pm",
         "version" : "0.46"
      },
      "DateTime::Locale::dv_MV" : {
         "file" : "lib/DateTime/Locale/dv_MV.pm",
         "version" : "0.46"
      },
      "DateTime::Locale::dz" : {
         "file" : "lib/DateTime/Locale/dz.pm",
         "version" : "0.46"
      },
      "DateTime::Locale::dz_BT" : {
         "file" : "lib/DateTime/Locale/dz_BT.pm",
         "version" : "0.46"
      },
      "DateTime::Locale::ee" : {
         "file" : "lib/DateTime/Locale/ee.pm",
         "version" : "0.46"
      },
      "DateTime::Locale::ee_GH" : {
         "file" : "lib/DateTime/Locale/ee_GH.pm",
         "version" : "0.46"
      },
      "DateTime::Locale::ee_TG" : {
         "file" : "lib/DateTime/Locale/ee_TG.pm",
         "version" : "0.46"
      },
      "DateTime::Locale::el" : {
         "file" : "lib/DateTime/Locale/el.pm",
         "version" : "0.46"
      },
      "DateTime::Locale::el_CY" : {
         "file" : "lib/DateTime/Locale/el_CY.pm",
         "version" : "0.46"
      },
      "DateTime::Locale::el_GR" : {
         "file" : "lib/DateTime/Locale/el_GR.pm",
         "version" : "0.46"
      },
      "DateTime::Locale::el_POLYTON" : {
         "file" : "lib/DateTime/Locale/el_POLYTON.pm",
         "version" : "0.46"
      },
      "DateTime::Locale::en" : {
         "file" : "lib/DateTime/Locale/en.pm",
         "version" : "0.46"
      },
      "DateTime::Locale::en_AS" : {
         "file" : "lib/DateTime/Locale/en_AS.pm",
         "version" : "0.46"
      },
      "DateTime::Locale::en_AU" : {
         "file" : "lib/DateTime/Locale/en_AU.pm",
         "version" : "0.46"
      },
      "DateTime::Locale::en_BE" : {
         "file" : "lib/DateTime/Locale/en_BE.pm",
         "version" : "0.46"
      },
      "DateTime::Locale::en_BW" : {
         "file" : "lib/DateTime/Locale/en_BW.pm",
         "version" : "0.46"
      },
      "DateTime::Locale::en_BZ" : {
         "file" : "lib/DateTime/Locale/en_BZ.pm",
         "version" : "0.46"
      },
      "DateTime::Locale::en_CA" : {
         "file" : "lib/DateTime/Locale/en_CA.pm",
         "version" : "0.46"
      },
      "DateTime::Locale::en_Dsrt" : {
         "file" : "lib/DateTime/Locale/en_Dsrt.pm",
         "version" : "0.46"
      },
      "DateTime::Locale::en_Dsrt_US" : {
         "file" : "lib/DateTime/Locale/en_Dsrt_US.pm",
         "version" : "0.46"
      },
      "DateTime::Locale::en_GB" : {
         "file" : "lib/DateTime/Locale/en_GB.pm",
         "version" : "0.46"
      },
      "DateTime::Locale::en_GU" : {
         "file" : "lib/DateTime/Locale/en_GU.pm",
         "version" : "0.46"
      },
      "DateTime::Locale::en_HK" : {
         "file" : "lib/DateTime/Locale/en_HK.pm",
         "version" : "0.46"
      },
      "DateTime::Locale::en_IE" : {
         "file" : "lib/DateTime/Locale/en_IE.pm",
         "version" : "0.46"
      },
      "DateTime::Locale::en_IN" : {
         "file" : "lib/DateTime/Locale/en_IN.pm",
         "version" : "0.46"
      },
      "DateTime::Locale::en_JM" : {
         "file" : "lib/DateTime/Locale/en_JM.pm",
         "version" : "0.46"
      },
      "DateTime::Locale::en_MH" : {
         "file" : "lib/DateTime/Locale/en_MH.pm",
         "version" : "0.46"
      },
      "DateTime::Locale::en_MP" : {
         "file" : "lib/DateTime/Locale/en_MP.pm",
         "version" : "0.46"
      },
      "DateTime::Locale::en_MT" : {
         "file" : "lib/DateTime/Locale/en_MT.pm",
         "version" : "0.46"
      },
      "DateTime::Locale::en_NA" : {
         "file" : "lib/DateTime/Locale/en_NA.pm",
         "version" : "0.46"
      },
      "DateTime::Locale::en_NZ" : {
         "file" : "lib/DateTime/Locale/en_NZ.pm",
         "version" : "0.46"
      },
      "DateTime::Locale::en_PH" : {
         "file" : "lib/DateTime/Locale/en_PH.pm",
         "version" : "0.46"
      },
      "DateTime::Locale::en_PK" : {
         "file" : "lib/DateTime/Locale/en_PK.pm",
         "version" : "0.46"
      },
      "DateTime::Locale::en_SG" : {
         "file" : "lib/DateTime/Locale/en_SG.pm",
         "version" : "0.46"
      },
      "DateTime::Locale::en_Shaw" : {
         "file" : "lib/DateTime/Locale/en_Shaw.pm",
         "version" : "0.46"
      },
      "DateTime::Locale::en_TT" : {
         "file" : "lib/DateTime/Locale/en_TT.pm",
         "version" : "0.46"
      },
      "DateTime::Locale::en_UM" : {
         "file" : "lib/DateTime/Locale/en_UM.pm",
         "version" : "0.46"
      },
      "DateTime::Locale::en_US" : {
         "file" : "lib/DateTime/Locale/en_US.pm",
         "version" : "0.46"
      },
      "DateTime::Locale::en_US_POSIX" : {
         "file" : "lib/DateTime/Locale/en_US_POSIX.pm",
         "version" : "0.46"
      },
      "DateTime::Locale::en_VI" : {
         "file" : "lib/DateTime/Locale/en_VI.pm",
         "version" : "0.46"
      },
      "DateTime::Locale::en_ZA" : {
         "file" : "lib/DateTime/Locale/en_ZA.pm",
         "version" : "0.46"
      },
      "DateTime::Locale::en_ZW" : {
         "file" : "lib/DateTime/Locale/en_ZW.pm",
         "version" : "0.46"
      },
      "DateTime::Locale::eo" : {
         "file" : "lib/DateTime/Locale/eo.pm",
         "version" : "0.46"
      },
      "DateTime::Locale::es" : {
         "file" : "lib/DateTime/Locale/es.pm",
         "version" : "0.46"
      },
      "DateTime::Locale::es_AR" : {
         "file" : "lib/DateTime/Locale/es_AR.pm",
         "version" : "0.46"
      },
      "DateTime::Locale::es_BO" : {
         "file" : "lib/DateTime/Locale/es_BO.pm",
         "version" : "0.46"
      },
      "DateTime::Locale::es_CL" : {
         "file" : "lib/DateTime/Locale/es_CL.pm",
         "version" : "0.46"
      },
      "DateTime::Locale::es_CO" : {
         "file" : "lib/DateTime/Locale/es_CO.pm",
         "version" : "0.46"
      },
      "DateTime::Locale::es_CR" : {
         "file" : "lib/DateTime/Locale/es_CR.pm",
         "version" : "0.46"
      },
      "DateTime::Locale::es_DO" : {
         "file" : "lib/DateTime/Locale/es_DO.pm",
         "version" : "0.46"
      },
      "DateTime::Locale::es_EC" : {
         "file" : "lib/DateTime/Locale/es_EC.pm",
         "version" : "0.46"
      },
      "DateTime::Locale::es_ES" : {
         "file" : "lib/DateTime/Locale/es_ES.pm",
         "version" : "0.46"
      },
      "DateTime::Locale::es_GT" : {
         "file" : "lib/DateTime/Locale/es_GT.pm",
         "version" : "0.46"
      },
      "DateTime::Locale::es_HN" : {
         "file" : "lib/DateTime/Locale/es_HN.pm",
         "version" : "0.46"
      },
      "DateTime::Locale::es_MX" : {
         "file" : "lib/DateTime/Locale/es_MX.pm",
         "version" : "0.46"
      },
      "DateTime::Locale::es_NI" : {
         "file" : "lib/DateTime/Locale/es_NI.pm",
         "version" : "0.46"
      },
      "DateTime::Locale::es_PA" : {
         "file" : "lib/DateTime/Locale/es_PA.pm",
         "version" : "0.46"
      },
      "DateTime::Locale::es_PE" : {
         "file" : "lib/DateTime/Locale/es_PE.pm",
         "version" : "0.46"
      },
      "DateTime::Locale::es_PR" : {
         "file" : "lib/DateTime/Locale/es_PR.pm",
         "version" : "0.46"
      },
      "DateTime::Locale::es_PY" : {
         "file" : "lib/DateTime/Locale/es_PY.pm",
         "version" : "0.46"
      },
      "DateTime::Locale::es_SV" : {
         "file" : "lib/DateTime/Locale/es_SV.pm",
         "version" : "0.46"
      },
      "DateTime::Locale::es_US" : {
         "file" : "lib/DateTime/Locale/es_US.pm",
         "version" : "0.46"
      },
      "DateTime::Locale::es_UY" : {
         "file" : "lib/DateTime/Locale/es_UY.pm",
         "version" : "0.46"
      },
      "DateTime::Locale::es_VE" : {
         "file" : "lib/DateTime/Locale/es_VE.pm",
         "version" : "0.46"
      },
      "DateTime::Locale::et" : {
         "file" : "lib/DateTime/Locale/et.pm",
         "version" : "0.46"
      },
      "DateTime::Locale::et_EE" : {
         "file" : "lib/DateTime/Locale/et_EE.pm",
         "version" : "0.46"
      },
      "DateTime::Locale::eu" : {
         "file" : "lib/DateTime/Locale/eu.pm",
         "version" : "0.46"
      },
      "DateTime::Locale::eu_ES" : {
         "file" : "lib/DateTime/Locale/eu_ES.pm",
         "version" : "0.46"
      },
      "DateTime::Locale::fa" : {
         "file" : "lib/DateTime/Locale/fa.pm",
         "version" : "0.46"
      },
      "DateTime::Locale::fa_AF" : {
         "file" : "lib/DateTime/Locale/fa_AF.pm",
         "version" : "0.46"
      },
      "DateTime::Locale::fa_IR" : {
         "file" : "lib/DateTime/Locale/fa_IR.pm",
         "version" : "0.46"
      },
      "DateTime::Locale::fi" : {
         "file" : "lib/DateTime/Locale/fi.pm",
         "version" : "0.46"
      },
      "DateTime::Locale::fi_FI" : {
         "file" : "lib/DateTime/Locale/fi_FI.pm",
         "version" : "0.46"
      },
      "DateTime::Locale::fil" : {
         "file" : "lib/DateTime/Locale/fil.pm",
         "version" : "0.46"
      },
      "DateTime::Locale::fil_PH" : {
         "file" : "lib/DateTime/Locale/fil_PH.pm",
         "version" : "0.46"
      },
      "DateTime::Locale::fo" : {
         "file" : "lib/DateTime/Locale/fo.pm",
         "version" : "0.46"
      },
      "DateTime::Locale::fo_FO" : {
         "file" : "lib/DateTime/Locale/fo_FO.pm",
         "version" : "0.46"
      },
      "DateTime::Locale::fr" : {
         "file" : "lib/DateTime/Locale/fr.pm",
         "version" : "0.46"
      },
      "DateTime::Locale::fr_BE" : {
         "file" : "lib/DateTime/Locale/fr_BE.pm",
         "version" : "0.46"
      },
      "DateTime::Locale::fr_CA" : {
         "file" : "lib/DateTime/Locale/fr_CA.pm",
         "version" : "0.46"
      },
      "DateTime::Locale::fr_CH" : {
         "file" : "lib/DateTime/Locale/fr_CH.pm",
         "version" : "0.46"
      },
      "DateTime::Locale::fr_FR" : {
         "file" : "lib/DateTime/Locale/fr_FR.pm",
         "version" : "0.46"
      },
      "DateTime::Locale::fr_LU" : {
         "file" : "lib/DateTime/Locale/fr_LU.pm",
         "version" : "0.46"
      },
      "DateTime::Locale::fr_MC" : {
         "file" : "lib/DateTime/Locale/fr_MC.pm",
         "version" : "0.46"
      },
      "DateTime::Locale::fr_SN" : {
         "file" : "lib/DateTime/Locale/fr_SN.pm",
         "version" : "0.46"
      },
      "DateTime::Locale::fur" : {
         "file" : "lib/DateTime/Locale/fur.pm",
         "version" : "0.46"
      },
      "DateTime::Locale::fur_IT" : {
         "file" : "lib/DateTime/Locale/fur_IT.pm",
         "version" : "0.46"
      },
      "DateTime::Locale::ga" : {
         "file" : "lib/DateTime/Locale/ga.pm",
         "version" : "0.46"
      },
      "DateTime::Locale::ga_IE" : {
         "file" : "lib/DateTime/Locale/ga_IE.pm",
         "version" : "0.46"
      },
      "DateTime::Locale::gaa" : {
         "file" : "lib/DateTime/Locale/gaa.pm",
         "version" : "0.46"
      },
      "DateTime::Locale::gaa_GH" : {
         "file" : "lib/DateTime/Locale/gaa_GH.pm",
         "version" : "0.46"
      },
      "DateTime::Locale::gez" : {
         "file" : "lib/DateTime/Locale/gez.pm",
         "version" : "0.46"
      },
      "DateTime::Locale::gez_ER" : {
         "file" : "lib/DateTime/Locale/gez_ER.pm",
         "version" : "0.46"
      },
      "DateTime::Locale::gez_ET" : {
         "file" : "lib/DateTime/Locale/gez_ET.pm",
         "version" : "0.46"
      },
      "DateTime::Locale::gl" : {
         "file" : "lib/DateTime/Locale/gl.pm",
         "version" : "0.46"
      },
      "DateTime::Locale::gl_ES" : {
         "file" : "lib/DateTime/Locale/gl_ES.pm",
         "version" : "0.46"
      },
      "DateTime::Locale::gsw" : {
         "file" : "lib/DateTime/Locale/gsw.pm",
         "version" : "0.46"
      },
      "DateTime::Locale::gsw_CH" : {
         "file" : "lib/DateTime/Locale/gsw_CH.pm",
         "version" : "0.46"
      },
      "DateTime::Locale::gu" : {
         "file" : "lib/DateTime/Locale/gu.pm",
         "version" : "0.46"
      },
      "DateTime::Locale::gu_IN" : {
         "file" : "lib/DateTime/Locale/gu_IN.pm",
         "version" : "0.46"
      },
      "DateTime::Locale::gv" : {
         "file" : "lib/DateTime/Locale/gv.pm",
         "version" : "0.46"
      },
      "DateTime::Locale::gv_GB" : {
         "file" : "lib/DateTime/Locale/gv_GB.pm",
         "version" : "0.46"
      },
      "DateTime::Locale::ha" : {
         "file" : "lib/DateTime/Locale/ha.pm",
         "version" : "0.46"
      },
      "DateTime::Locale::ha_Arab" : {
         "file" : "lib/DateTime/Locale/ha_Arab.pm",
         "version" : "0.46"
      },
      "DateTime::Locale::ha_Arab_NG" : {
         "file" : "lib/DateTime/Locale/ha_Arab_NG.pm",
         "version" : "0.46"
      },
      "DateTime::Locale::ha_Arab_SD" : {
         "file" : "lib/DateTime/Locale/ha_Arab_SD.pm",
         "version" : "0.46"
      },
      "DateTime::Locale::ha_GH" : {
         "file" : "lib/DateTime/Locale/ha_GH.pm",
         "version" : "0.46"
      },
      "DateTime::Locale::ha_Latn" : {
         "file" : "lib/DateTime/Locale/ha_Latn.pm",
         "version" : "0.46"
      },
      "DateTime::Locale::ha_Latn_GH" : {
         "file" : "lib/DateTime/Locale/ha_Latn_GH.pm",
         "version" : "0.46"
      },
      "DateTime::Locale::ha_Latn_NE" : {
         "file" : "lib/DateTime/Locale/ha_Latn_NE.pm",
         "version" : "0.46"
      },
      "DateTime::Locale::ha_Latn_NG" : {
         "file" : "lib/DateTime/Locale/ha_Latn_NG.pm",
         "version" : "0.46"
      },
      "DateTime::Locale::ha_NE" : {
         "file" : "lib/DateTime/Locale/ha_NE.pm",
         "version" : "0.46"
      },
      "DateTime::Locale::ha_NG" : {
         "file" : "lib/DateTime/Locale/ha_NG.pm",
         "version" : "0.46"
      },
      "DateTime::Locale::ha_SD" : {
         "file" : "lib/DateTime/Locale/ha_SD.pm",
         "version" : "0.46"
      },
      "DateTime::Locale::haw" : {
         "file" : "lib/DateTime/Locale/haw.pm",
         "version" : "0.46"
      },
      "DateTime::Locale::haw_US" : {
         "file" : "lib/DateTime/Locale/haw_US.pm",
         "version" : "0.46"
      },
      "DateTime::Locale::he" : {
         "file" : "lib/DateTime/Locale/he.pm",
         "version" : "0.46"
      },
      "DateTime::Locale::he_IL" : {
         "file" : "lib/DateTime/Locale/he_IL.pm",
         "version" : "0.46"
      },
      "DateTime::Locale::hi" : {
         "file" : "lib/DateTime/Locale/hi.pm",
         "version" : "0.46"
      },
      "DateTime::Locale::hi_IN" : {
         "file" : "lib/DateTime/Locale/hi_IN.pm",
         "version" : "0.46"
      },
      "DateTime::Locale::hr" : {
         "file" : "lib/DateTime/Locale/hr.pm",
         "version" : "0.46"
      },
      "DateTime::Locale::hr_HR" : {
         "file" : "lib/DateTime/Locale/hr_HR.pm",
         "version" : "0.46"
      },
      "DateTime::Locale::hu" : {
         "file" : "lib/DateTime/Locale/hu.pm",
         "version" : "0.46"
      },
      "DateTime::Locale::hu_HU" : {
         "file" : "lib/DateTime/Locale/hu_HU.pm",
         "version" : "0.46"
      },
      "DateTime::Locale::hy" : {
         "file" : "lib/DateTime/Locale/hy.pm",
         "version" : "0.46"
      },
      "DateTime::Locale::hy_AM" : {
         "file" : "lib/DateTime/Locale/hy_AM.pm",
         "version" : "0.46"
      },
      "DateTime::Locale::hy_AM_REVISED" : {
         "file" : "lib/DateTime/Locale/hy_AM_REVISED.pm",
         "version" : "0.46"
      },
      "DateTime::Locale::ia" : {
         "file" : "lib/DateTime/Locale/ia.pm",
         "version" : "0.46"
      },
      "DateTime::Locale::id" : {
         "file" : "lib/DateTime/Locale/id.pm",
         "version" : "0.46"
      },
      "DateTime::Locale::id_ID" : {
         "file" : "lib/DateTime/Locale/id_ID.pm",
         "version" : "0.46"
      },
      "DateTime::Locale::ig" : {
         "file" : "lib/DateTime/Locale/ig.pm",
         "version" : "0.46"
      },
      "DateTime::Locale::ig_NG" : {
         "file" : "lib/DateTime/Locale/ig_NG.pm",
         "version" : "0.46"
      },
      "DateTime::Locale::ii" : {
         "file" : "lib/DateTime/Locale/ii.pm",
         "version" : "0.46"
      },
      "DateTime::Locale::ii_CN" : {
         "file" : "lib/DateTime/Locale/ii_CN.pm",
         "version" : "0.46"
      },
      "DateTime::Locale::is" : {
         "file" : "lib/DateTime/Locale/is.pm",
         "version" : "0.46"
      },
      "DateTime::Locale::is_IS" : {
         "file" : "lib/DateTime/Locale/is_IS.pm",
         "version" : "0.46"
      },
      "DateTime::Locale::it" : {
         "file" : "lib/DateTime/Locale/it.pm",
         "version" : "0.46"
      },
      "DateTime::Locale::it_CH" : {
         "file" : "lib/DateTime/Locale/it_CH.pm",
         "version" : "0.46"
      },
      "DateTime::Locale::it_IT" : {
         "file" : "lib/DateTime/Locale/it_IT.pm",
         "version" : "0.46"
      },
      "DateTime::Locale::iu" : {
         "file" : "lib/DateTime/Locale/iu.pm",
         "version" : "0.46"
      },
      "DateTime::Locale::ja" : {
         "file" : "lib/DateTime/Locale/ja.pm",
         "version" : "0.46"
      },
      "DateTime::Locale::ja_JP" : {
         "file" : "lib/DateTime/Locale/ja_JP.pm",
         "version" : "0.46"
      },
      "DateTime::Locale::ka" : {
         "file" : "lib/DateTime/Locale/ka.pm",
         "version" : "0.46"
      },
      "DateTime::Locale::ka_GE" : {
         "file" : "lib/DateTime/Locale/ka_GE.pm",
         "version" : "0.46"
      },
      "DateTime::Locale::kaj" : {
         "file" : "lib/DateTime/Locale/kaj.pm",
         "version" : "0.46"
      },
      "DateTime::Locale::kaj_NG" : {
         "file" : "lib/DateTime/Locale/kaj_NG.pm",
         "version" : "0.46"
      },
      "DateTime::Locale::kam" : {
         "file" : "lib/DateTime/Locale/kam.pm",
         "version" : "0.46"
      },
      "DateTime::Locale::kam_KE" : {
         "file" : "lib/DateTime/Locale/kam_KE.pm",
         "version" : "0.46"
      },
      "DateTime::Locale::kcg" : {
         "file" : "lib/DateTime/Locale/kcg.pm",
         "version" : "0.46"
      },
      "DateTime::Locale::kcg_NG" : {
         "file" : "lib/DateTime/Locale/kcg_NG.pm",
         "version" : "0.46"
      },
      "DateTime::Locale::kfo" : {
         "file" : "lib/DateTime/Locale/kfo.pm",
         "version" : "0.46"
      },
      "DateTime::Locale::kfo_CI" : {
         "file" : "lib/DateTime/Locale/kfo_CI.pm",
         "version" : "0.46"
      },
      "DateTime::Locale::kk" : {
         "file" : "lib/DateTime/Locale/kk.pm",
         "version" : "0.46"
      },
      "DateTime::Locale::kk_Cyrl" : {
         "file" : "lib/DateTime/Locale/kk_Cyrl.pm",
         "version" : "0.46"
      },
      "DateTime::Locale::kk_Cyrl_KZ" : {
         "file" : "lib/DateTime/Locale/kk_Cyrl_KZ.pm",
         "version" : "0.46"
      },
      "DateTime::Locale::kk_KZ" : {
         "file" : "lib/DateTime/Locale/kk_KZ.pm",
         "version" : "0.46"
      },
      "DateTime::Locale::kl" : {
         "file" : "lib/DateTime/Locale/kl.pm",
         "version" : "0.46"
      },
      "DateTime::Locale::kl_GL" : {
         "file" : "lib/DateTime/Locale/kl_GL.pm",
         "version" : "0.46"
      },
      "DateTime::Locale::km" : {
         "file" : "lib/DateTime/Locale/km.pm",
         "version" : "0.46"
      },
      "DateTime::Locale::km_KH" : {
         "file" : "lib/DateTime/Locale/km_KH.pm",
         "version" : "0.46"
      },
      "DateTime::Locale::kn" : {
         "file" : "lib/DateTime/Locale/kn.pm",
         "version" : "0.46"
      },
      "DateTime::Locale::kn_IN" : {
         "file" : "lib/DateTime/Locale/kn_IN.pm",
         "version" : "0.46"
      },
      "DateTime::Locale::ko" : {
         "file" : "lib/DateTime/Locale/ko.pm",
         "version" : "0.46"
      },
      "DateTime::Locale::ko_KR" : {
         "file" : "lib/DateTime/Locale/ko_KR.pm",
         "version" : "0.46"
      },
      "DateTime::Locale::kok" : {
         "file" : "lib/DateTime/Locale/kok.pm",
         "version" : "0.46"
      },
      "DateTime::Locale::kok_IN" : {
         "file" : "lib/DateTime/Locale/kok_IN.pm",
         "version" : "0.46"
      },
      "DateTime::Locale::kpe" : {
         "file" : "lib/DateTime/Locale/kpe.pm",
         "version" : "0.46"
      },
      "DateTime::Locale::kpe_GN" : {
         "file" : "lib/DateTime/Locale/kpe_GN.pm",
         "version" : "0.46"
      },
      "DateTime::Locale::kpe_LR" : {
         "file" : "lib/DateTime/Locale/kpe_LR.pm",
         "version" : "0.46"
      },
      "DateTime::Locale::ku" : {
         "file" : "lib/DateTime/Locale/ku.pm",
         "version" : "0.46"
      },
      "DateTime::Locale::ku_Arab" : {
         "file" : "lib/DateTime/Locale/ku_Arab.pm",
         "version" : "0.46"
      },
      "DateTime::Locale::ku_Arab_IQ" : {
         "file" : "lib/DateTime/Locale/ku_Arab_IQ.pm",
         "version" : "0.46"
      },
      "DateTime::Locale::ku_Arab_IR" : {
         "file" : "lib/DateTime/Locale/ku_Arab_IR.pm",
         "version" : "0.46"
      },
      "DateTime::Locale::ku_Arab_SY" : {
         "file" : "lib/DateTime/Locale/ku_Arab_SY.pm",
         "version" : "0.46"
      },
      "DateTime::Locale::ku_IQ" : {
         "file" : "lib/DateTime/Locale/ku_IQ.pm",
         "version" : "0.46"
      },
      "DateTime::Locale::ku_IR" : {
         "file" : "lib/DateTime/Locale/ku_IR.pm",
         "version" : "0.46"
      },
      "DateTime::Locale::ku_Latn" : {
         "file" : "lib/DateTime/Locale/ku_Latn.pm",
         "version" : "0.46"
      },
      "DateTime::Locale::ku_Latn_TR" : {
         "file" : "lib/DateTime/Locale/ku_Latn_TR.pm",
         "version" : "0.46"
      },
      "DateTime::Locale::ku_SY" : {
         "file" : "lib/DateTime/Locale/ku_SY.pm",
         "version" : "0.46"
      },
      "DateTime::Locale::ku_TR" : {
         "file" : "lib/DateTime/Locale/ku_TR.pm",
         "version" : "0.46"
      },
      "DateTime::Locale::kw" : {
         "file" : "lib/DateTime/Locale/kw.pm",
         "version" : "0.46"
      },
      "DateTime::Locale::kw_GB" : {
         "file" : "lib/DateTime/Locale/kw_GB.pm",
         "version" : "0.46"
      },
      "DateTime::Locale::ky" : {
         "file" : "lib/DateTime/Locale/ky.pm",
         "version" : "0.46"
      },
      "DateTime::Locale::ky_KG" : {
         "file" : "lib/DateTime/Locale/ky_KG.pm",
         "version" : "0.46"
      },
      "DateTime::Locale::ln" : {
         "file" : "lib/DateTime/Locale/ln.pm",
         "version" : "0.46"
      },
      "DateTime::Locale::ln_CD" : {
         "file" : "lib/DateTime/Locale/ln_CD.pm",
         "version" : "0.46"
      },
      "DateTime::Locale::ln_CG" : {
         "file" : "lib/DateTime/Locale/ln_CG.pm",
         "version" : "0.46"
      },
      "DateTime::Locale::lo" : {
         "file" : "lib/DateTime/Locale/lo.pm",
         "version" : "0.46"
      },
      "DateTime::Locale::lo_LA" : {
         "file" : "lib/DateTime/Locale/lo_LA.pm",
         "version" : "0.46"
      },
      "DateTime::Locale::lt" : {
         "file" : "lib/DateTime/Locale/lt.pm",
         "version" : "0.46"
      },
      "DateTime::Locale::lt_LT" : {
         "file" : "lib/DateTime/Locale/lt_LT.pm",
         "version" : "0.46"
      },
      "DateTime::Locale::lv" : {
         "file" : "lib/DateTime/Locale/lv.pm",
         "version" : "0.46"
      },
      "DateTime::Locale::lv_LV" : {
         "file" : "lib/DateTime/Locale/lv_LV.pm",
         "version" : "0.46"
      },
      "DateTime::Locale::mk" : {
         "file" : "lib/DateTime/Locale/mk.pm",
         "version" : "0.46"
      },
      "DateTime::Locale::mk_MK" : {
         "file" : "lib/DateTime/Locale/mk_MK.pm",
         "version" : "0.46"
      },
      "DateTime::Locale::ml" : {
         "file" : "lib/DateTime/Locale/ml.pm",
         "version" : "0.46"
      },
      "DateTime::Locale::ml_IN" : {
         "file" : "lib/DateTime/Locale/ml_IN.pm",
         "version" : "0.46"
      },
      "DateTime::Locale::mn" : {
         "file" : "lib/DateTime/Locale/mn.pm",
         "version" : "0.46"
      },
      "DateTime::Locale::mn_CN" : {
         "file" : "lib/DateTime/Locale/mn_CN.pm",
         "version" : "0.46"
      },
      "DateTime::Locale::mn_Cyrl" : {
         "file" : "lib/DateTime/Locale/mn_Cyrl.pm",
         "version" : "0.46"
      },
      "DateTime::Locale::mn_Cyrl_MN" : {
         "file" : "lib/DateTime/Locale/mn_Cyrl_MN.pm",
         "version" : "0.46"
      },
      "DateTime::Locale::mn_MN" : {
         "file" : "lib/DateTime/Locale/mn_MN.pm",
         "version" : "0.46"
      },
      "DateTime::Locale::mn_Mong" : {
         "file" : "lib/DateTime/Locale/mn_Mong.pm",
         "version" : "0.46"
      },
      "DateTime::Locale::mn_Mong_CN" : {
         "file" : "lib/DateTime/Locale/mn_Mong_CN.pm",
         "version" : "0.46"
      },
      "DateTime::Locale::mo" : {
         "file" : "lib/DateTime/Locale/mo.pm",
         "version" : "0.46"
      },
      "DateTime::Locale::mr" : {
         "file" : "lib/DateTime/Locale/mr.pm",
         "version" : "0.46"
      },
      "DateTime::Locale::mr_IN" : {
         "file" : "lib/DateTime/Locale/mr_IN.pm",
         "version" : "0.46"
      },
      "DateTime::Locale::ms" : {
         "file" : "lib/DateTime/Locale/ms.pm",
         "version" : "0.46"
      },
      "DateTime::Locale::ms_BN" : {
         "file" : "lib/DateTime/Locale/ms_BN.pm",
         "version" : "0.46"
      },
      "DateTime::Locale::ms_MY" : {
         "file" : "lib/DateTime/Locale/ms_MY.pm",
         "version" : "0.46"
      },
      "DateTime::Locale::mt" : {
         "file" : "lib/DateTime/Locale/mt.pm",
         "version" : "0.46"
      },
      "DateTime::Locale::mt_MT" : {
         "file" : "lib/DateTime/Locale/mt_MT.pm",
         "version" : "0.46"
      },
      "DateTime::Locale::my" : {
         "file" : "lib/DateTime/Locale/my.pm",
         "version" : "0.46"
      },
      "DateTime::Locale::my_MM" : {
         "file" : "lib/DateTime/Locale/my_MM.pm",
         "version" : "0.46"
      },
      "DateTime::Locale::nb" : {
         "file" : "lib/DateTime/Locale/nb.pm",
         "version" : "0.46"
      },
      "DateTime::Locale::nb_NO" : {
         "file" : "lib/DateTime/Locale/nb_NO.pm",
         "version" : "0.46"
      },
      "DateTime::Locale::nds" : {
         "file" : "lib/DateTime/Locale/nds.pm",
         "version" : "0.46"
      },
      "DateTime::Locale::nds_DE" : {
         "file" : "lib/DateTime/Locale/nds_DE.pm",
         "version" : "0.46"
      },
      "DateTime::Locale::ne" : {
         "file" : "lib/DateTime/Locale/ne.pm",
         "version" : "0.46"
      },
      "DateTime::Locale::ne_IN" : {
         "file" : "lib/DateTime/Locale/ne_IN.pm",
         "version" : "0.46"
      },
      "DateTime::Locale::ne_NP" : {
         "file" : "lib/DateTime/Locale/ne_NP.pm",
         "version" : "0.46"
      },
      "DateTime::Locale::nl" : {
         "file" : "lib/DateTime/Locale/nl.pm",
         "version" : "0.46"
      },
      "DateTime::Locale::nl_BE" : {
         "file" : "lib/DateTime/Locale/nl_BE.pm",
         "version" : "0.46"
      },
      "DateTime::Locale::nl_NL" : {
         "file" : "lib/DateTime/Locale/nl_NL.pm",
         "version" : "0.46"
      },
      "DateTime::Locale::nn" : {
         "file" : "lib/DateTime/Locale/nn.pm",
         "version" : "0.46"
      },
      "DateTime::Locale::nn_NO" : {
         "file" : "lib/DateTime/Locale/nn_NO.pm",
         "version" : "0.46"
      },
      "DateTime::Locale::no" : {
         "file" : "lib/DateTime/Locale/no.pm",
         "version" : "0.46"
      },
      "DateTime::Locale::nr" : {
         "file" : "lib/DateTime/Locale/nr.pm",
         "version" : "0.46"
      },
      "DateTime::Locale::nr_ZA" : {
         "file" : "lib/DateTime/Locale/nr_ZA.pm",
         "version" : "0.46"
      },
      "DateTime::Locale::nso" : {
         "file" : "lib/DateTime/Locale/nso.pm",
         "version" : "0.46"
      },
      "DateTime::Locale::nso_ZA" : {
         "file" : "lib/DateTime/Locale/nso_ZA.pm",
         "version" : "0.46"
      },
      "DateTime::Locale::ny" : {
         "file" : "lib/DateTime/Locale/ny.pm",
         "version" : "0.46"
      },
      "DateTime::Locale::ny_MW" : {
         "file" : "lib/DateTime/Locale/ny_MW.pm",
         "version" : "0.46"
      },
      "DateTime::Locale::oc" : {
         "file" : "lib/DateTime/Locale/oc.pm",
         "version" : "0.46"
      },
      "DateTime::Locale::oc_FR" : {
         "file" : "lib/DateTime/Locale/oc_FR.pm",
         "version" : "0.46"
      },
      "DateTime::Locale::om" : {
         "file" : "lib/DateTime/Locale/om.pm",
         "version" : "0.46"
      },
      "DateTime::Locale::om_ET" : {
         "file" : "lib/DateTime/Locale/om_ET.pm",
         "version" : "0.46"
      },
      "DateTime::Locale::om_KE" : {
         "file" : "lib/DateTime/Locale/om_KE.pm",
         "version" : "0.46"
      },
      "DateTime::Locale::or" : {
         "file" : "lib/DateTime/Locale/or.pm",
         "version" : "0.46"
      },
      "DateTime::Locale::or_IN" : {
         "file" : "lib/DateTime/Locale/or_IN.pm",
         "version" : "0.46"
      },
      "DateTime::Locale::pa" : {
         "file" : "lib/DateTime/Locale/pa.pm",
         "version" : "0.46"
      },
      "DateTime::Locale::pa_Arab" : {
         "file" : "lib/DateTime/Locale/pa_Arab.pm",
         "version" : "0.46"
      },
      "DateTime::Locale::pa_Arab_PK" : {
         "file" : "lib/DateTime/Locale/pa_Arab_PK.pm",
         "version" : "0.46"
      },
      "DateTime::Locale::pa_Guru" : {
         "file" : "lib/DateTime/Locale/pa_Guru.pm",
         "version" : "0.46"
      },
      "DateTime::Locale::pa_Guru_IN" : {
         "file" : "lib/DateTime/Locale/pa_Guru_IN.pm",
         "version" : "0.46"
      },
      "DateTime::Locale::pa_IN" : {
         "file" : "lib/DateTime/Locale/pa_IN.pm",
         "version" : "0.46"
      },
      "DateTime::Locale::pa_PK" : {
         "file" : "lib/DateTime/Locale/pa_PK.pm",
         "version" : "0.46"
      },
      "DateTime::Locale::pl" : {
         "file" : "lib/DateTime/Locale/pl.pm",
         "version" : "0.46"
      },
      "DateTime::Locale::pl_PL" : {
         "file" : "lib/DateTime/Locale/pl_PL.pm",
         "version" : "0.46"
      },
      "DateTime::Locale::ps" : {
         "file" : "lib/DateTime/Locale/ps.pm",
         "version" : "0.46"
      },
      "DateTime::Locale::ps_AF" : {
         "file" : "lib/DateTime/Locale/ps_AF.pm",
         "version" : "0.46"
      },
      "DateTime::Locale::pt" : {
         "file" : "lib/DateTime/Locale/pt.pm",
         "version" : "0.46"
      },
      "DateTime::Locale::pt_BR" : {
         "file" : "lib/DateTime/Locale/pt_BR.pm",
         "version" : "0.46"
      },
      "DateTime::Locale::pt_PT" : {
         "file" : "lib/DateTime/Locale/pt_PT.pm",
         "version" : "0.46"
      },
      "DateTime::Locale::ro" : {
         "file" : "lib/DateTime/Locale/ro.pm",
         "version" : "0.46"
      },
      "DateTime::Locale::ro_MD" : {
         "file" : "lib/DateTime/Locale/ro_MD.pm",
         "version" : "0.46"
      },
      "DateTime::Locale::ro_RO" : {
         "file" : "lib/DateTime/Locale/ro_RO.pm",
         "version" : "0.46"
      },
      "DateTime::Locale::root" : {
         "file" : "lib/DateTime/Locale/root.pm",
         "version" : "0.46"
      },
      "DateTime::Locale::ru" : {
         "file" : "lib/DateTime/Locale/ru.pm",
         "version" : "0.46"
      },
      "DateTime::Locale::ru_RU" : {
         "file" : "lib/DateTime/Locale/ru_RU.pm",
         "version" : "0.46"
      },
      "DateTime::Locale::ru_UA" : {
         "file" : "lib/DateTime/Locale/ru_UA.pm",
         "version" : "0.46"
      },
      "DateTime::Locale::rw" : {
         "file" : "lib/DateTime/Locale/rw.pm",
         "version" : "0.46"
      },
      "DateTime::Locale::rw_RW" : {
         "file" : "lib/DateTime/Locale/rw_RW.pm",
         "version" : "0.46"
      },
      "DateTime::Locale::sa" : {
         "file" : "lib/DateTime/Locale/sa.pm",
         "version" : "0.46"
      },
      "DateTime::Locale::sa_IN" : {
         "file" : "lib/DateTime/Locale/sa_IN.pm",
         "version" : "0.46"
      },
      "DateTime::Locale::se" : {
         "file" : "lib/DateTime/Locale/se.pm",
         "version" : "0.46"
      },
      "DateTime::Locale::se_FI" : {
         "file" : "lib/DateTime/Locale/se_FI.pm",
         "version" : "0.46"
      },
      "DateTime::Locale::se_NO" : {
         "file" : "lib/DateTime/Locale/se_NO.pm",
         "version" : "0.46"
      },
      "DateTime::Locale::sh" : {
         "file" : "lib/DateTime/Locale/sh.pm",
         "version" : "0.46"
      },
      "DateTime::Locale::sh_BA" : {
         "file" : "lib/DateTime/Locale/sh_BA.pm",
         "version" : "0.46"
      },
      "DateTime::Locale::sh_CS" : {
         "file" : "lib/DateTime/Locale/sh_CS.pm",
         "version" : "0.46"
      },
      "DateTime::Locale::sh_YU" : {
         "file" : "lib/DateTime/Locale/sh_YU.pm",
         "version" : "0.46"
      },
      "DateTime::Locale::si" : {
         "file" : "lib/DateTime/Locale/si.pm",
         "version" : "0.46"
      },
      "DateTime::Locale::si_LK" : {
         "file" : "lib/DateTime/Locale/si_LK.pm",
         "version" : "0.46"
      },
      "DateTime::Locale::sid" : {
         "file" : "lib/DateTime/Locale/sid.pm",
         "version" : "0.46"
      },
      "DateTime::Locale::sid_ET" : {
         "file" : "lib/DateTime/Locale/sid_ET.pm",
         "version" : "0.46"
      },
      "DateTime::Locale::sk" : {
         "file" : "lib/DateTime/Locale/sk.pm",
         "version" : "0.46"
      },
      "DateTime::Locale::sk_SK" : {
         "file" : "lib/DateTime/Locale/sk_SK.pm",
         "version" : "0.46"
      },
      "DateTime::Locale::sl" : {
         "file" : "lib/DateTime/Locale/sl.pm",
         "version" : "0.46"
      },
      "DateTime::Locale::sl_SI" : {
         "file" : "lib/DateTime/Locale/sl_SI.pm",
         "version" : "0.46"
      },
      "DateTime::Locale::so" : {
         "file" : "lib/DateTime/Locale/so.pm",
         "version" : "0.46"
      },
      "DateTime::Locale::so_DJ" : {
         "file" : "lib/DateTime/Locale/so_DJ.pm",
         "version" : "0.46"
      },
      "DateTime::Locale::so_ET" : {
         "file" : "lib/DateTime/Locale/so_ET.pm",
         "version" : "0.46"
      },
      "DateTime::Locale::so_KE" : {
         "file" : "lib/DateTime/Locale/so_KE.pm",
         "version" : "0.46"
      },
      "DateTime::Locale::so_SO" : {
         "file" : "lib/DateTime/Locale/so_SO.pm",
         "version" : "0.46"
      },
      "DateTime::Locale::sq" : {
         "file" : "lib/DateTime/Locale/sq.pm",
         "version" : "0.46"
      },
      "DateTime::Locale::sq_AL" : {
         "file" : "lib/DateTime/Locale/sq_AL.pm",
         "version" : "0.46"
      },
      "DateTime::Locale::sr" : {
         "file" : "lib/DateTime/Locale/sr.pm",
         "version" : "0.46"
      },
      "DateTime::Locale::sr_BA" : {
         "file" : "lib/DateTime/Locale/sr_BA.pm",
         "version" : "0.46"
      },
      "DateTime::Locale::sr_CS" : {
         "file" : "lib/DateTime/Locale/sr_CS.pm",
         "version" : "0.46"
      },
      "DateTime::Locale::sr_Cyrl" : {
         "file" : "lib/DateTime/Locale/sr_Cyrl.pm",
         "version" : "0.46"
      },
      "DateTime::Locale::sr_Cyrl_BA" : {
         "file" : "lib/DateTime/Locale/sr_Cyrl_BA.pm",
         "version" : "0.46"
      },
      "DateTime::Locale::sr_Cyrl_CS" : {
         "file" : "lib/DateTime/Locale/sr_Cyrl_CS.pm",
         "version" : "0.46"
      },
      "DateTime::Locale::sr_Cyrl_ME" : {
         "file" : "lib/DateTime/Locale/sr_Cyrl_ME.pm",
         "version" : "0.46"
      },
      "DateTime::Locale::sr_Cyrl_RS" : {
         "file" : "lib/DateTime/Locale/sr_Cyrl_RS.pm",
         "version" : "0.46"
      },
      "DateTime::Locale::sr_Cyrl_YU" : {
         "file" : "lib/DateTime/Locale/sr_Cyrl_YU.pm",
         "version" : "0.46"
      },
      "DateTime::Locale::sr_Latn" : {
         "file" : "lib/DateTime/Locale/sr_Latn.pm",
         "version" : "0.46"
      },
      "DateTime::Locale::sr_Latn_BA" : {
         "file" : "lib/DateTime/Locale/sr_Latn_BA.pm",
         "version" : "0.46"
      },
      "DateTime::Locale::sr_Latn_CS" : {
         "file" : "lib/DateTime/Locale/sr_Latn_CS.pm",
         "version" : "0.46"
      },
      "DateTime::Locale::sr_Latn_ME" : {
         "file" : "lib/DateTime/Locale/sr_Latn_ME.pm",
         "version" : "0.46"
      },
      "DateTime::Locale::sr_Latn_RS" : {
         "file" : "lib/DateTime/Locale/sr_Latn_RS.pm",
         "version" : "0.46"
      },
      "DateTime::Locale::sr_Latn_YU" : {
         "file" : "lib/DateTime/Locale/sr_Latn_YU.pm",
         "version" : "0.46"
      },
      "DateTime::Locale::sr_ME" : {
         "file" : "lib/DateTime/Locale/sr_ME.pm",
         "version" : "0.46"
      },
      "DateTime::Locale::sr_RS" : {
         "file" : "lib/DateTime/Locale/sr_RS.pm",
         "version" : "0.46"
      },
      "DateTime::Locale::sr_YU" : {
         "file" : "lib/DateTime/Locale/sr_YU.pm",
         "version" : "0.46"
      },
      "DateTime::Locale::ss" : {
         "file" : "lib/DateTime/Locale/ss.pm",
         "version" : "0.46"
      },
      "DateTime::Locale::ss_SZ" : {
         "file" : "lib/DateTime/Locale/ss_SZ.pm",
         "version" : "0.46"
      },
      "DateTime::Locale::ss_ZA" : {
         "file" : "lib/DateTime/Locale/ss_ZA.pm",
         "version" : "0.46"
      },
      "DateTime::Locale::st" : {
         "file" : "lib/DateTime/Locale/st.pm",
         "version" : "0.46"
      },
      "DateTime::Locale::st_LS" : {
         "file" : "lib/DateTime/Locale/st_LS.pm",
         "version" : "0.46"
      },
      "DateTime::Locale::st_ZA" : {
         "file" : "lib/DateTime/Locale/st_ZA.pm",
         "version" : "0.46"
      },
      "DateTime::Locale::sv" : {
         "file" : "lib/DateTime/Locale/sv.pm",
         "version" : "0.46"
      },
      "DateTime::Locale::sv_FI" : {
         "file" : "lib/DateTime/Locale/sv_FI.pm",
         "version" : "0.46"
      },
      "DateTime::Locale::sv_SE" : {
         "file" : "lib/DateTime/Locale/sv_SE.pm",
         "version" : "0.46"
      },
      "DateTime::Locale::sw" : {
         "file" : "lib/DateTime/Locale/sw.pm",
         "version" : "0.46"
      },
      "DateTime::Locale::sw_KE" : {
         "file" : "lib/DateTime/Locale/sw_KE.pm",
         "version" : "0.46"
      },
      "DateTime::Locale::sw_TZ" : {
         "file" : "lib/DateTime/Locale/sw_TZ.pm",
         "version" : "0.46"
      },
      "DateTime::Locale::syr" : {
         "file" : "lib/DateTime/Locale/syr.pm",
         "version" : "0.46"
      },
      "DateTime::Locale::syr_SY" : {
         "file" : "lib/DateTime/Locale/syr_SY.pm",
         "version" : "0.46"
      },
      "DateTime::Locale::ta" : {
         "file" : "lib/DateTime/Locale/ta.pm",
         "version" : "0.46"
      },
      "DateTime::Locale::ta_IN" : {
         "file" : "lib/DateTime/Locale/ta_IN.pm",
         "version" : "0.46"
      },
      "DateTime::Locale::te" : {
         "file" : "lib/DateTime/Locale/te.pm",
         "version" : "0.46"
      },
      "DateTime::Locale::te_IN" : {
         "file" : "lib/DateTime/Locale/te_IN.pm",
         "version" : "0.46"
      },
      "DateTime::Locale::tg" : {
         "file" : "lib/DateTime/Locale/tg.pm",
         "version" : "0.46"
      },
      "DateTime::Locale::tg_Cyrl" : {
         "file" : "lib/DateTime/Locale/tg_Cyrl.pm",
         "version" : "0.46"
      },
      "DateTime::Locale::tg_Cyrl_TJ" : {
         "file" : "lib/DateTime/Locale/tg_Cyrl_TJ.pm",
         "version" : "0.46"
      },
      "DateTime::Locale::tg_TJ" : {
         "file" : "lib/DateTime/Locale/tg_TJ.pm",
         "version" : "0.46"
      },
      "DateTime::Locale::th" : {
         "file" : "lib/DateTime/Locale/th.pm",
         "version" : "0.46"
      },
      "DateTime::Locale::th_TH" : {
         "file" : "lib/DateTime/Locale/th_TH.pm",
         "version" : "0.46"
      },
      "DateTime::Locale::ti" : {
         "file" : "lib/DateTime/Locale/ti.pm",
         "version" : "0.46"
      },
      "DateTime::Locale::ti_ER" : {
         "file" : "lib/DateTime/Locale/ti_ER.pm",
         "version" : "0.46"
      },
      "DateTime::Locale::ti_ET" : {
         "file" : "lib/DateTime/Locale/ti_ET.pm",
         "version" : "0.46"
      },
      "DateTime::Locale::tig" : {
         "file" : "lib/DateTime/Locale/tig.pm",
         "version" : "0.46"
      },
      "DateTime::Locale::tig_ER" : {
         "file" : "lib/DateTime/Locale/tig_ER.pm",
         "version" : "0.46"
      },
      "DateTime::Locale::tl" : {
         "file" : "lib/DateTime/Locale/tl.pm",
         "version" : "0.46"
      },
      "DateTime::Locale::tn" : {
         "file" : "lib/DateTime/Locale/tn.pm",
         "version" : "0.46"
      },
      "DateTime::Locale::tn_ZA" : {
         "file" : "lib/DateTime/Locale/tn_ZA.pm",
         "version" : "0.46"
      },
      "DateTime::Locale::to" : {
         "file" : "lib/DateTime/Locale/to.pm",
         "version" : "0.46"
      },
      "DateTime::Locale::to_TO" : {
         "file" : "lib/DateTime/Locale/to_TO.pm",
         "version" : "0.46"
      },
      "DateTime::Locale::tr" : {
         "file" : "lib/DateTime/Locale/tr.pm",
         "version" : "0.46"
      },
      "DateTime::Locale::tr_TR" : {
         "file" : "lib/DateTime/Locale/tr_TR.pm",
         "version" : "0.46"
      },
      "DateTime::Locale::trv" : {
         "file" : "lib/DateTime/Locale/trv.pm",
         "version" : "0.46"
      },
      "DateTime::Locale::trv_TW" : {
         "file" : "lib/DateTime/Locale/trv_TW.pm",
         "version" : "0.46"
      },
      "DateTime::Locale::ts" : {
         "file" : "lib/DateTime/Locale/ts.pm",
         "version" : "0.46"
      },
      "DateTime::Locale::ts_ZA" : {
         "file" : "lib/DateTime/Locale/ts_ZA.pm",
         "version" : "0.46"
      },
      "DateTime::Locale::tt" : {
         "file" : "lib/DateTime/Locale/tt.pm",
         "version" : "0.46"
      },
      "DateTime::Locale::tt_RU" : {
         "file" : "lib/DateTime/Locale/tt_RU.pm",
         "version" : "0.46"
      },
      "DateTime::Locale::ug" : {
         "file" : "lib/DateTime/Locale/ug.pm",
         "version" : "0.46"
      },
      "DateTime::Locale::ug_Arab" : {
         "file" : "lib/DateTime/Locale/ug_Arab.pm",
         "version" : "0.46"
      },
      "DateTime::Locale::ug_Arab_CN" : {
         "file" : "lib/DateTime/Locale/ug_Arab_CN.pm",
         "version" : "0.46"
      },
      "DateTime::Locale::ug_CN" : {
         "file" : "lib/DateTime/Locale/ug_CN.pm",
         "version" : "0.46"
      },
      "DateTime::Locale::uk" : {
         "file" : "lib/DateTime/Locale/uk.pm",
         "version" : "0.46"
      },
      "DateTime::Locale::uk_UA" : {
         "file" : "lib/DateTime/Locale/uk_UA.pm",
         "version" : "0.46"
      },
      "DateTime::Locale::ur" : {
         "file" : "lib/DateTime/Locale/ur.pm",
         "version" : "0.46"
      },
      "DateTime::Locale::ur_IN" : {
         "file" : "lib/DateTime/Locale/ur_IN.pm",
         "version" : "0.46"
      },
      "DateTime::Locale::ur_PK" : {
         "file" : "lib/DateTime/Locale/ur_PK.pm",
         "version" : "0.46"
      },
      "DateTime::Locale::uz" : {
         "file" : "lib/DateTime/Locale/uz.pm",
         "version" : "0.46"
      },
      "DateTime::Locale::uz_AF" : {
         "file" : "lib/DateTime/Locale/uz_AF.pm",
         "version" : "0.46"
      },
      "DateTime::Locale::uz_Arab" : {
         "file" : "lib/DateTime/Locale/uz_Arab.pm",
         "version" : "0.46"
      },
      "DateTime::Locale::uz_Arab_AF" : {
         "file" : "lib/DateTime/Locale/uz_Arab_AF.pm",
         "version" : "0.46"
      },
      "DateTime::Locale::uz_Cyrl" : {
         "file" : "lib/DateTime/Locale/uz_Cyrl.pm",
         "version" : "0.46"
      },
      "DateTime::Locale::uz_Cyrl_UZ" : {
         "file" : "lib/DateTime/Locale/uz_Cyrl_UZ.pm",
         "version" : "0.46"
      },
      "DateTime::Locale::uz_Latn" : {
         "file" : "lib/DateTime/Locale/uz_Latn.pm",
         "version" : "0.46"
      },
      "DateTime::Locale::uz_Latn_UZ" : {
         "file" : "lib/DateTime/Locale/uz_Latn_UZ.pm",
         "version" : "0.46"
      },
      "DateTime::Locale::uz_UZ" : {
         "file" : "lib/DateTime/Locale/uz_UZ.pm",
         "version" : "0.46"
      },
      "DateTime::Locale::ve" : {
         "file" : "lib/DateTime/Locale/ve.pm",
         "version" : "0.46"
      },
      "DateTime::Locale::ve_ZA" : {
         "file" : "lib/DateTime/Locale/ve_ZA.pm",
         "version" : "0.46"
      },
      "DateTime::Locale::vi" : {
         "file" : "lib/DateTime/Locale/vi.pm",
         "version" : "0.46"
      },
      "DateTime::Locale::vi_VN" : {
         "file" : "lib/DateTime/Locale/vi_VN.pm",
         "version" : "0.46"
      },
      "DateTime::Locale::wal" : {
         "file" : "lib/DateTime/Locale/wal.pm",
         "version" : "0.46"
      },
      "DateTime::Locale::wal_ET" : {
         "file" : "lib/DateTime/Locale/wal_ET.pm",
         "version" : "0.46"
      },
      "DateTime::Locale::wo" : {
         "file" : "lib/DateTime/Locale/wo.pm",
         "version" : "0.46"
      },
      "DateTime::Locale::wo_Latn" : {
         "file" : "lib/DateTime/Locale/wo_Latn.pm",
         "version" : "0.46"
      },
      "DateTime::Locale::wo_Latn_SN" : {
         "file" : "lib/DateTime/Locale/wo_Latn_SN.pm",
         "version" : "0.46"
      },
      "DateTime::Locale::wo_SN" : {
         "file" : "lib/DateTime/Locale/wo_SN.pm",
         "version" : "0.46"
      },
      "DateTime::Locale::xh" : {
         "file" : "lib/DateTime/Locale/xh.pm",
         "version" : "0.46"
      },
      "DateTime::Locale::xh_ZA" : {
         "file" : "lib/DateTime/Locale/xh_ZA.pm",
         "version" : "0.46"
      },
      "DateTime::Locale::yo" : {
         "file" : "lib/DateTime/Locale/yo.pm",
         "version" : "0.46"
      },
      "DateTime::Locale::yo_NG" : {
         "file" : "lib/DateTime/Locale/yo_NG.pm",
         "version" : "0.46"
      },
      "DateTime::Locale::zh" : {
         "file" : "lib/DateTime/Locale/zh.pm",
         "version" : "0.46"
      },
      "DateTime::Locale::zh_CN" : {
         "file" : "lib/DateTime/Locale/zh_CN.pm",
         "version" : "0.46"
      },
      "DateTime::Locale::zh_HK" : {
         "file" : "lib/DateTime/Locale/zh_HK.pm",
         "version" : "0.46"
      },
      "DateTime::Locale::zh_Hans" : {
         "file" : "lib/DateTime/Locale/zh_Hans.pm",
         "version" : "0.46"
      },
      "DateTime::Locale::zh_Hans_CN" : {
         "file" : "lib/DateTime/Locale/zh_Hans_CN.pm",
         "version" : "0.46"
      },
      "DateTime::Locale::zh_Hans_HK" : {
         "file" : "lib/DateTime/Locale/zh_Hans_HK.pm",
         "version" : "0.46"
      },
      "DateTime::Locale::zh_Hans_MO" : {
         "file" : "lib/DateTime/Locale/zh_Hans_MO.pm",
         "version" : "0.46"
      },
      "DateTime::Locale::zh_Hans_SG" : {
         "file" : "lib/DateTime/Locale/zh_Hans_SG.pm",
         "version" : "0.46"
      },
      "DateTime::Locale::zh_Hant" : {
         "file" : "lib/DateTime/Locale/zh_Hant.pm",
         "version" : "0.46"
      },
      "DateTime::Locale::zh_Hant_HK" : {
         "file" : "lib/DateTime/Locale/zh_Hant_HK.pm",
         "version" : "0.46"
      },
      "DateTime::Locale::zh_Hant_MO" : {
         "file" : "lib/DateTime/Locale/zh_Hant_MO.pm",
         "version" : "0.46"
      },
      "DateTime::Locale::zh_Hant_TW" : {
         "file" : "lib/DateTime/Locale/zh_Hant_TW.pm",
         "version" : "0.46"
      },
      "DateTime::Locale::zh_MO" : {
         "file" : "lib/DateTime/Locale/zh_MO.pm",
         "version" : "0.46"
      },
      "DateTime::Locale::zh_SG" : {
         "file" : "lib/DateTime/Locale/zh_SG.pm",
         "version" : "0.46"
      },
      "DateTime::Locale::zh_TW" : {
         "file" : "lib/DateTime/Locale/zh_TW.pm",
         "version" : "0.46"
      },
      "DateTime::Locale::zu" : {
         "file" : "lib/DateTime/Locale/zu.pm",
         "version" : "0.46"
      },
      "DateTime::Locale::zu_ZA" : {
         "file" : "lib/DateTime/Locale/zu_ZA.pm",
         "version" : "0.46"
      }
   },
   "release_status" : "stable",
   "resources" : {
      "bugtracker" : {
         "mailto" : "bug-datetime-locale@rt.cpan.org",
         "web" : "http://rt.cpan.org/Public/Dist/Display.html?Name=DateTime-Locale"
      },
      "homepage" : "http://metacpan.org/release/DateTime-Locale",
      "repository" : {
         "type" : "git",
         "url" : "git://github.com/autarch/DateTime-Locale.git",
         "web" : "https://github.com/autarch/DateTime-Locale"
      }
   },
   "version" : "0.46",
   "x_Dist_Zilla" : {
      "perl" : {
         "version" : "5.020001"
      },
      "plugins" : [
         {
            "class" : "Dist::Zilla::Plugin::MakeMaker",
            "config" : {
               "Dist::Zilla::Role::TestRunner" : {
                  "default_jobs" : 1
               }
            },
            "name" : "@DROLSKY/MakeMaker",
            "version" : "5.036"
         },
         {
            "class" : "Dist::Zilla::Plugin::Authority",
            "name" : "@DROLSKY/Authority",
            "version" : "1.009"
         },
         {
            "class" : "Dist::Zilla::Plugin::AutoPrereqs",
            "name" : "@DROLSKY/AutoPrereqs",
            "version" : "5.036"
         },
         {
            "class" : "Dist::Zilla::Plugin::CopyFilesFromBuild",
            "name" : "@DROLSKY/CopyFilesFromBuild",
            "version" : "0.150250"
         },
         {
            "class" : "Dist::Zilla::Plugin::Git::GatherDir",
            "config" : {
               "Dist::Zilla::Plugin::GatherDir" : {
                  "exclude_filename" : [
                     "Makefile.PL",
                     "README.md",
                     "cpanfile",
                     "LICENSE",
                     "Build.PL"
                  ],
                  "exclude_match" : [],
                  "follow_symlinks" : "0",
                  "include_dotfiles" : "0",
                  "prefix" : "",
                  "prune_directory" : [],
                  "root" : "."
               },
               "Dist::Zilla::Plugin::Git::GatherDir" : {
                  "include_untracked" : "0"
               }
            },
            "name" : "@DROLSKY/Git::GatherDir",
            "version" : "2.033"
         },
         {
            "class" : "Dist::Zilla::Plugin::GitHub::Meta",
            "name" : "@DROLSKY/GitHub::Meta",
            "version" : "0.40"
         },
         {
            "class" : "Dist::Zilla::Plugin::GitHub::Update",
            "name" : "@DROLSKY/GitHub::Update",
            "version" : "0.40"
         },
         {
            "class" : "Dist::Zilla::Plugin::MetaResources",
            "name" : "@DROLSKY/MetaResources",
            "version" : "5.036"
         },
         {
            "class" : "Dist::Zilla::Plugin::MetaProvides::Package",
            "config" : {
               "Dist::Zilla::Plugin::MetaProvides::Package" : {
                  "finder_objects" : [
                     {
                        "class" : "Dist::Zilla::Plugin::FinderCode",
                        "name" : "@DROLSKY/MetaProvides::Package/AUTOVIV/:InstallModulesPM",
                        "version" : "5.036"
                     }
                  ]
               },
               "Dist::Zilla::Role::MetaProvider::Provider" : {
                  "inherit_missing" : "1",
                  "inherit_version" : "1",
                  "meta_noindex" : "1"
               }
            },
            "name" : "@DROLSKY/MetaProvides::Package",
            "version" : "2.003001"
         },
         {
            "class" : "Dist::Zilla::Plugin::NextRelease",
            "name" : "@DROLSKY/NextRelease",
            "version" : "5.036"
         },
         {
            "class" : "Dist::Zilla::Plugin::Prereqs",
            "config" : {
               "Dist::Zilla::Plugin::Prereqs" : {
                  "phase" : "test",
                  "type" : "requires"
               }
            },
            "name" : "@DROLSKY/Test::More with subtest()",
            "version" : "5.036"
         },
         {
            "class" : "Dist::Zilla::Plugin::Prereqs",
            "config" : {
               "Dist::Zilla::Plugin::Prereqs" : {
                  "phase" : "develop",
                  "type" : "requires"
               }
            },
            "name" : "@DROLSKY/Modules for use with tidyall",
            "version" : "5.036"
         },
         {
            "class" : "Dist::Zilla::Plugin::PromptIfStale",
            "config" : {
               "Dist::Zilla::Plugin::PromptIfStale" : {
                  "check_all_plugins" : "1",
                  "check_all_prereqs" : "1",
                  "modules" : [],
                  "phase" : "release",
                  "skip" : [
                     "Dist::Zilla::Plugin::DROLSKY::Contributors",
                     "Dist::Zilla::Plugin::DROLSKY::License",
                     "Dist::Zilla::Plugin::DROLSKY::TidyAll"
                  ]
               }
            },
            "name" : "@DROLSKY/PromptIfStale",
            "version" : "0.042"
         },
         {
            "class" : "Dist::Zilla::Plugin::ReadmeAnyFromPod",
            "name" : "@DROLSKY/README.md in build",
            "version" : "0.150250"
         },
         {
            "class" : "Dist::Zilla::Plugin::ReadmeAnyFromPod",
            "name" : "@DROLSKY/README.md in root",
            "version" : "0.150250"
         },
         {
            "class" : "Dist::Zilla::Plugin::Test::PodSpelling",
            "name" : "@DROLSKY/Test::PodSpelling",
            "version" : "2.006009"
         },
         {
            "class" : "Dist::Zilla::Plugin::Test::ReportPrereqs",
            "name" : "@DROLSKY/Test::ReportPrereqs",
            "version" : "0.021"
         },
         {
            "class" : "Dist::Zilla::Plugin::ManifestSkip",
            "name" : "@DROLSKY/ManifestSkip",
            "version" : "5.036"
         },
         {
            "class" : "Dist::Zilla::Plugin::MetaYAML",
            "name" : "@DROLSKY/MetaYAML",
            "version" : "5.036"
         },
         {
            "class" : "Dist::Zilla::Plugin::License",
            "name" : "@DROLSKY/License",
            "version" : "5.036"
         },
         {
            "class" : "Dist::Zilla::Plugin::ExtraTests",
            "name" : "@DROLSKY/ExtraTests",
            "version" : "5.036"
         },
         {
            "class" : "Dist::Zilla::Plugin::ExecDir",
            "name" : "@DROLSKY/ExecDir",
            "version" : "5.036"
         },
         {
            "class" : "Dist::Zilla::Plugin::ShareDir",
            "name" : "@DROLSKY/ShareDir",
            "version" : "5.036"
         },
         {
            "class" : "Dist::Zilla::Plugin::Manifest",
            "name" : "@DROLSKY/Manifest",
            "version" : "5.036"
         },
         {
            "class" : "Dist::Zilla::Plugin::CheckVersionIncrement",
            "name" : "@DROLSKY/CheckVersionIncrement",
            "version" : "0.121750"
         },
         {
            "class" : "Dist::Zilla::Plugin::TestRelease",
            "name" : "@DROLSKY/TestRelease",
            "version" : "5.036"
         },
         {
            "class" : "Dist::Zilla::Plugin::ConfirmRelease",
            "name" : "@DROLSKY/ConfirmRelease",
            "version" : "5.036"
         },
         {
            "class" : "Dist::Zilla::Plugin::UploadToCPAN",
            "name" : "@DROLSKY/UploadToCPAN",
            "version" : "5.036"
         },
         {
            "class" : "Dist::Zilla::Plugin::CheckPrereqsIndexed",
            "name" : "@DROLSKY/CheckPrereqsIndexed",
            "version" : "0.015"
         },
         {
            "class" : "Dist::Zilla::Plugin::CPANFile",
            "name" : "@DROLSKY/CPANFile",
            "version" : "5.036"
         },
         {
            "class" : "Dist::Zilla::Plugin::DROLSKY::Contributors",
            "name" : "@DROLSKY/DROLSKY::Contributors",
            "version" : "0.34"
         },
         {
            "class" : "Dist::Zilla::Plugin::DROLSKY::License",
            "name" : "@DROLSKY/DROLSKY::License",
            "version" : "0.34"
         },
         {
            "class" : "Dist::Zilla::Plugin::Git::CheckFor::CorrectBranch",
            "config" : {
               "Dist::Zilla::Role::Git::Repo" : {
                  "repo_root" : "."
               }
            },
            "name" : "@DROLSKY/Git::CheckFor::CorrectBranch",
            "version" : "0.013"
         },
         {
            "class" : "Dist::Zilla::Plugin::Git::CheckFor::MergeConflicts",
            "config" : {
               "Dist::Zilla::Role::Git::Repo" : {
                  "repo_root" : "."
               }
            },
            "name" : "@DROLSKY/Git::CheckFor::MergeConflicts",
            "version" : "0.013"
         },
         {
            "class" : "Dist::Zilla::Plugin::Git::Contributors",
            "config" : {
               "Dist::Zilla::Plugin::Git::Contributors" : {
                  "include_authors" : "0",
                  "include_releaser" : "1",
                  "order_by" : "name",
                  "paths" : []
               }
            },
            "name" : "@DROLSKY/Git::Contributors",
            "version" : "0.011"
         },
         {
            "class" : "Dist::Zilla::Plugin::InstallGuide",
            "name" : "@DROLSKY/InstallGuide",
            "version" : "1.200006"
         },
         {
            "class" : "Dist::Zilla::Plugin::Meta::Contributors",
            "name" : "@DROLSKY/Meta::Contributors",
            "version" : "0.002"
         },
         {
            "class" : "Dist::Zilla::Plugin::MetaConfig",
            "name" : "@DROLSKY/MetaConfig",
            "version" : "5.036"
         },
         {
            "class" : "Dist::Zilla::Plugin::MetaJSON",
            "name" : "@DROLSKY/MetaJSON",
            "version" : "5.036"
         },
         {
            "class" : "Dist::Zilla::Plugin::RewriteVersion",
            "name" : "@DROLSKY/RewriteVersion",
            "version" : "0.009"
         },
         {
            "class" : "Dist::Zilla::Plugin::SurgicalPodWeaver",
            "config" : {
               "Dist::Zilla::Plugin::PodWeaver" : {
                  "finder" : [
                     ":InstallModules",
                     ":ExecFiles"
                  ],
                  "plugins" : [
                     {
                        "class" : "Pod::Weaver::Plugin::EnsurePod5",
                        "name" : "@CorePrep/EnsurePod5",
                        "version" : "4.010"
                     },
                     {
                        "class" : "Pod::Weaver::Plugin::H1Nester",
                        "name" : "@CorePrep/H1Nester",
                        "version" : "4.010"
                     },
                     {
                        "class" : "Pod::Weaver::Section::Name",
                        "name" : "Name",
                        "version" : "4.010"
                     },
                     {
                        "class" : "Pod::Weaver::Section::Version",
                        "name" : "Version",
                        "version" : "4.010"
                     },
                     {
                        "class" : "Pod::Weaver::Section::Region",
                        "name" : "prelude",
                        "version" : "4.010"
                     },
                     {
                        "class" : "Pod::Weaver::Section::Generic",
                        "name" : "SYNOPSIS",
                        "version" : "4.010"
                     },
                     {
                        "class" : "Pod::Weaver::Section::Generic",
                        "name" : "DESCRIPTION",
                        "version" : "4.010"
                     },
                     {
                        "class" : "Pod::Weaver::Section::Leftovers",
                        "name" : "Leftovers",
                        "version" : "4.010"
                     },
                     {
                        "class" : "Pod::Weaver::Section::Region",
                        "name" : "postlude",
                        "version" : "4.010"
                     },
                     {
                        "class" : "Pod::Weaver::Section::Authors",
                        "name" : "Authors",
                        "version" : "4.010"
                     },
                     {
                        "class" : "Pod::Weaver::Section::Contributors",
                        "name" : "Contributors",
                        "version" : "0.009"
                     },
                     {
                        "class" : "Pod::Weaver::Section::Legal",
                        "name" : "Legal",
                        "version" : "4.010"
                     }
                  ]
               }
            },
            "name" : "@DROLSKY/SurgicalPodWeaver",
            "version" : "0.0023"
         },
         {
            "class" : "Dist::Zilla::Plugin::PodSyntaxTests",
            "name" : "@DROLSKY/PodSyntaxTests",
            "version" : "5.036"
         },
         {
            "class" : "Dist::Zilla::Plugin::Test::CPAN::Changes",
            "name" : "@DROLSKY/Test::CPAN::Changes",
            "version" : "0.009"
         },
         {
            "class" : "Dist::Zilla::Plugin::Test::EOL",
            "config" : {
               "Dist::Zilla::Plugin::Test::EOL" : {
                  "filename" : "xt/author/eol.t",
                  "finder" : [
                     ":InstallModules",
                     ":ExecFiles",
                     ":TestFiles"
                  ],
                  "trailing_whitespace" : "1"
               }
            },
            "name" : "@DROLSKY/Test::EOL",
            "version" : "0.18"
         },
         {
            "class" : "Dist::Zilla::Plugin::Test::NoTabs",
            "config" : {
               "Dist::Zilla::Plugin::Test::NoTabs" : {
                  "filename" : "xt/author/no-tabs.t",
                  "finder" : [
                     ":InstallModules",
                     ":ExecFiles",
                     ":TestFiles"
                  ]
               }
            },
            "name" : "@DROLSKY/Test::NoTabs",
            "version" : "0.14"
         },
         {
            "class" : "Dist::Zilla::Plugin::Test::Portability",
            "name" : "@DROLSKY/Test::Portability",
            "version" : "2.000006"
         },
         {
            "class" : "Dist::Zilla::Plugin::Test::Compile",
            "config" : {
               "Dist::Zilla::Plugin::Test::Compile" : {
                  "bail_out_on_fail" : "0",
                  "fail_on_warning" : "author",
                  "fake_home" : "0",
                  "filename" : "xt/author/00-compile.t",
                  "module_finder" : [
                     ":InstallModules"
                  ],
                  "needs_display" : "0",
                  "phase" : "develop",
                  "script_finder" : [
                     ":ExecFiles"
                  ],
                  "skips" : []
               }
            },
            "name" : "@DROLSKY/Test::Compile",
            "version" : "2.052"
         },
         {
            "class" : "Dist::Zilla::Plugin::Git::Check",
            "config" : {
               "Dist::Zilla::Plugin::Git::Check" : {
                  "untracked_files" : "die"
               },
               "Dist::Zilla::Role::Git::DirtyFiles" : {
                  "allow_dirty" : [
                     "Makefile.PL",
                     "README.md",
                     "cpanfile",
                     "LICENSE",
                     "Build.PL",
                     "Changes",
                     "CONTRIBUTING.md"
                  ],
                  "allow_dirty_match" : [],
                  "changelog" : "Changes"
               },
               "Dist::Zilla::Role::Git::Repo" : {
                  "repo_root" : "."
               }
            },
            "name" : "@DROLSKY/Git::Check",
            "version" : "2.033"
         },
         {
            "class" : "Dist::Zilla::Plugin::Git::Commit",
            "config" : {
               "Dist::Zilla::Plugin::Git::Commit" : {
                  "add_files_in" : [],
                  "commit_msg" : "v%v%n%n%c",
                  "time_zone" : "local"
               },
               "Dist::Zilla::Role::Git::DirtyFiles" : {
                  "allow_dirty" : [
                     "Makefile.PL",
                     "README.md",
                     "cpanfile",
                     "LICENSE",
                     "Build.PL",
                     "Changes",
                     "CONTRIBUTING.md"
                  ],
                  "allow_dirty_match" : [],
                  "changelog" : "Changes"
               },
               "Dist::Zilla::Role::Git::Repo" : {
                  "repo_root" : "."
               }
            },
            "name" : "@DROLSKY/commit generated files",
            "version" : "2.033"
         },
         {
            "class" : "Dist::Zilla::Plugin::Git::Tag",
            "config" : {
               "Dist::Zilla::Plugin::Git::Tag" : {
                  "branch" : null,
                  "signed" : 0,
                  "tag" : "v0.46",
                  "tag_format" : "v%v",
                  "tag_message" : "v%v",
                  "time_zone" : "local"
               },
               "Dist::Zilla::Role::Git::Repo" : {
                  "repo_root" : "."
               }
            },
            "name" : "@DROLSKY/Git::Tag",
            "version" : "2.033"
         },
         {
            "class" : "Dist::Zilla::Plugin::Git::Push",
            "config" : {
               "Dist::Zilla::Plugin::Git::Push" : {
                  "push_to" : [
                     "origin"
                  ],
                  "remotes_must_exist" : 1
               },
               "Dist::Zilla::Role::Git::Repo" : {
                  "repo_root" : "."
               }
            },
            "name" : "@DROLSKY/Git::Push",
            "version" : "2.033"
         },
         {
            "class" : "Dist::Zilla::Plugin::BumpVersionAfterRelease",
            "name" : "@DROLSKY/BumpVersionAfterRelease",
            "version" : "0.009"
         },
         {
            "class" : "Dist::Zilla::Plugin::Git::Commit",
            "config" : {
               "Dist::Zilla::Plugin::Git::Commit" : {
                  "add_files_in" : [],
                  "commit_msg" : "Bump version after release",
                  "time_zone" : "local"
               },
               "Dist::Zilla::Role::Git::DirtyFiles" : {
                  "allow_dirty" : [
                     "dist.ini",
                     "Changes"
                  ],
                  "allow_dirty_match" : [
                     "(?^:.+)"
                  ],
                  "changelog" : "Changes"
               },
               "Dist::Zilla::Role::Git::Repo" : {
                  "repo_root" : "."
               }
            },
            "name" : "@DROLSKY/commit version bump",
            "version" : "2.033"
         },
         {
            "class" : "Dist::Zilla::Plugin::Git::Push",
            "config" : {
               "Dist::Zilla::Plugin::Git::Push" : {
                  "push_to" : [
                     "origin"
                  ],
                  "remotes_must_exist" : 1
               },
               "Dist::Zilla::Role::Git::Repo" : {
                  "repo_root" : "."
               }
            },
            "name" : "@DROLSKY/push version bump",
            "version" : "2.033"
         },
         {
            "class" : "Dist::Zilla::Plugin::Conflicts",
            "name" : "Conflicts",
            "version" : "0.17"
         },
         {
            "class" : "Dist::Zilla::Plugin::FinderCode",
            "name" : ":InstallModules",
            "version" : "5.036"
         },
         {
            "class" : "Dist::Zilla::Plugin::FinderCode",
            "name" : ":IncModules",
            "version" : "5.036"
         },
         {
            "class" : "Dist::Zilla::Plugin::FinderCode",
            "name" : ":TestFiles",
            "version" : "5.036"
         },
         {
            "class" : "Dist::Zilla::Plugin::FinderCode",
            "name" : ":ExecFiles",
            "version" : "5.036"
         },
         {
            "class" : "Dist::Zilla::Plugin::FinderCode",
            "name" : ":ShareFiles",
            "version" : "5.036"
         },
         {
            "class" : "Dist::Zilla::Plugin::FinderCode",
            "name" : ":MainModule",
            "version" : "5.036"
         },
         {
            "class" : "Dist::Zilla::Plugin::FinderCode",
            "name" : ":AllFiles",
            "version" : "5.036"
         },
         {
            "class" : "Dist::Zilla::Plugin::FinderCode",
            "name" : ":NoFiles",
            "version" : "5.036"
         },
         {
            "class" : "Dist::Zilla::Plugin::FinderCode",
            "name" : "@DROLSKY/MetaProvides::Package/AUTOVIV/:InstallModulesPM",
            "version" : "5.036"
         }
      ],
      "zilla" : {
         "class" : "Dist::Zilla::Dist::Builder",
         "config" : {
            "is_trial" : "0"
         },
         "version" : "5.036"
      }
   },
   "x_authority" : "cpan:DROLSKY",
   "x_breaks" : {
      "DateTime::Format::Strptime" : "<= 1.1000"
   }
}
